twn Een R package voor de TWN-lijst
…
```r
library(twn)
```

```
## twn gebruikt de TWN-lijst van 2022-04-27
```

```r
twn_lijst
```

```
## # A tibble: 27,294 x 11
##    taxontype         taxonname author taxongroup taxonlevel parentname refername
##    <chr>             <chr>     <chr>  <chr>      <ord>      <chr>      <chr>    
##  1 Macrophytes       Abies     "P. M~ Gymnosper~ Genus      Pinaceae   <NA>     
##  2 Macrophytes       Abies al~ "C. L~ Gymnosper~ Species    Abies      <NA>     
##  3 Macrophytes       Abies co~ "(G. ~ Angiosper~ Species    Abies      <NA>     
##  4 Macrophytes       Abies no~ "(C. ~ Gymnosper~ Species    Abies      <NA>     
##  5 Macrophytes       Abies pr~ "A. R~ Angiosper~ Species    Abies      <NA>     
##  6 Macrophytes       Abies ve~ "J. L~ Gymnosper~ Species    Abies      <NA>     
##  7 Macrophytes       Abies ve~ "J. L~ Gymnosper~ Species    <NA>       <NA>     
##  8 Macroinvertebrat~ Abietina~ "Kirc~ Bryozoa -~ Genus      Sertulari~ <NA>     
##  9 Macroinvertebrat~ Abietina~ "(Lin~ Bryozoa -~ Species    Abietinar~ <NA>     
## 10 Macroinvertebrat~ Ablabesm~ "Joha~ Insecta (~ Genus      Tanypodin~ <NA>     
## # ... with 27,284 more rows, and 4 more variables: literature <chr>,
## #   localname <chr>, date <date>, status <chr>
```
…
